Machine learning con R - Preparación de datos
…
En este caso la variable Garage_xx tiene muchos NA, tal vez no sabían como clasificar las casas sin garage, en este caso sería mejor reemplazar los NA con su propia categoria ‘None’.

AmesHousing::ames_raw %>%
  filter(is.na(`Garage Type`)) %>%
  select(`Garage Type`, `Garage Cars`, `Garage Area`)

# A tibble: 157 × 3
   `Garage Type` `Garage Cars` `Garage Area`
   <chr>                 <int>         <int>
 1 <NA>                      0             0
 2 <NA>                      0             0
 3 <NA>                      0             0
 4 <NA>                      0             0
 5 <NA>                      0             0
 6 <NA>                      0             0
 7 <NA>                      0             0
 8 <NA>                      0             0
 9 <NA>                      0             0
10 <NA>                      0             0
# ℹ 147 more rows
…
• Log transformation on: all_outcomes()

• Centering for: all_numeric(), -all_outcomes()

• Scaling for: all_numeric(), -all_outcomes()

Variables categóricas

Agrupar

Cuando se tienen variables con niveles con pocas observaciones, por ejemplo en ames hay 28 barrios únicos,

count(ames_train, Neighborhood) %>% arrange(n)

# A tibble: 28 × 2
   Neighborhood            n
   <fct>               <int>
 1 Landmark                1
 2 Green_Hills             2
 3 Greens                  3
 4 Blueste                 8
 5 Veenker                15
 6 Northpark_Villa        17
 7 Bloomington_Heights    18
 8 Meadow_Village         22
 9 Briardale              23
10 Clear_Creek            26
# ℹ 18 more rows

count(ames_train, Screen_Porch) %>% arrange(n)

# A tibble: 95 × 2
   Screen_Porch     n
          <int> <int>
 1           40     1
 2           53     1
 3           60     1
 4           64     1
 5           80     1
 6           84     1
 7           88     1
 8           94     1
 9           99     1
10          104     1
# ℹ 85 more rows
Es mejor agrupar estas categorias con pocos valores en una nueva categoria, por ejemplo los niveles con menos del 10% de la muestra.

ames_train$Screen_Porch = as.factor(ames_train$Screen_Porch)
lumping <- recipe(Sale_Price ~ ., data = ames_train) %>%
    step_other(Neighborhood, threshold = 0.01, 
               other = "other")

# aplicarlo el plano 

apply_2_training <- prep(lumping, training = ames_train) %>%
    bake(ames_train)

count(apply_2_training, Neighborhood) %>% arrange(n)

# A tibble: 22 × 2
   Neighborhood                                n
   <fct>                                   <int>
 1 Meadow_Village                             22
 2 Briardale                                  23
 3 Clear_Creek                                26
 4 South_and_West_of_Iowa_State_University    32
 5 Stone_Brook                                40
 6 Northridge                                 51
 7 Timberland                                 52
 8 other                                      64
 9 Brookside                                  74
10 Crawford                                   75
# ℹ 12 more rows
…
Hay que tenre cuidado ya que se transforma a una variable ordinal, si la categorica no tiene orden esto no tendría sentido, si la variable categórica tiene un orden entonces es directa la transformación.

ames_train %>% select(contains('Qual'))

# A tibble: 2,049 × 6
   Overall_Qual  Exter_Qual Bsmt_Qual   Low_Qual_Fin_SF Kitchen_Qual Garage_Qual
   <fct>         <fct>      <fct>                 <int> <fct>        <fct>      
 1 Average       Typical    Typical                   0 Typical      Typical    
 2 Above_Average Typical    Typical                   0 Typical      Typical    
 3 Good          Typical    Good                      0 Typical      Typical    
 4 Above_Average Typical    Good                      0 Typical      Typical    
 5 Average       Typical    Typical                   0 Typical      Typical    
 6 Above_Average Typical    No_Basement               0 Typical      Typical    
 7 Average       Typical    Typical                   0 Typical      Typical    
 8 Average       Typical    Typical                   0 Typical      Typical    
 9 Average       Typical    Typical                   0 Typical      No_Garage  
10 Average       Typical    Typical                   0 Typical      Typical    
# ℹ 2,039 more rows
…
• PCA extraction with: Lot_Frontage, Lot_Area, Condition_1, ... | Trained

Por ultimos aplicamos el plano a datos nuevos

baked_train = bake(prepare, new_data = ames_train)
baked_test = bake(prepare, new_data = ames_test)

Warning:  There was 1 column that was a factor when the recipe was prepped:
 'Screen_Porch'.
 This may cause errors when processing new data.

baked_train

# A tibble: 2,049 × 27
   MS_SubClass MS_Zoning Lot_Shape Lot_Config Neighborhood Bldg_Type House_Style
   <fct>       <fct>     <fct>     <fct>      <fct>        <fct>     <fct>      
 1 Two_Story_… Resident… Regular   Inside     Briardale    Twnhs     Two_Story  
 2 Two_Story_… Resident… Regular   Inside     Briardale    Twnhs     Two_Story  
 3 One_Story_… Resident… Regular   FR2        Northpark_V… Twnhs     One_Story  
 4 One_Story_… Resident… Regular   Inside     Sawyer_West  TwnhsE    One_Story  
 5 One_Story_… Resident… Regular   Corner     Sawyer_West  OneFam    One_Story  
 6 Duplex_All… Resident… Regular   Inside     Sawyer       Duplex    One_and_Ha…
 7 One_Story_… Resident… Slightly… Inside     Sawyer       OneFam    One_Story  
 8 One_Story_… Resident… Slightly… Corner     Sawyer       OneFam    One_Story  
 9 Duplex_All… Resident… Slightly… Inside     North_Ames   Duplex    One_Story  
10 One_Story_… Resident… Regular   Inside     North_Ames   OneFam    One_Story  
# ℹ 2,039 more rows
# ℹ 20 more variables: Roof_Style <fct>, Exterior_1st <fct>,
#   Exterior_2nd <fct>, Mas_Vnr_Type <fct>, Foundation <fct>,
#   Bsmt_Exposure <fct>, BsmtFin_Type_1 <fct>, Central_Air <fct>,
#   Electrical <fct>, Garage_Type <fct>, Garage_Finish <fct>,
#   Paved_Drive <fct>, Fence <fct>, Sale_Type <fct>, Sale_Price <int>,
#   PC1 <dbl>, PC2 <dbl>, PC3 <dbl>, PC4 <dbl>, PC5 <dbl>
…
